<svg xmlns="http://www.w3.org/2000/svg" viewBox="0 0 48 48" width="30" height="30" id="fi_5812379">
                            <g id="Photography">
                                <path d="M24,13A12.5,12.5,0,1,0,36.5,25.5,12.514,12.514,0,0,0,24,13Zm0,23A10.5,10.5,0,1,1,34.5,25.5,10.512,10.512,0,0,1,24,36Z"></path>
                                <path d="M24,17a8.5,8.5,0,1,0,8.5,8.5A8.51,8.51,0,0,0,24,17Zm0,15a6.5,6.5,0,1,1,6.5-6.5A6.508,6.508,0,0,1,24,32Z"></path>
                                <path d="M24,28a2.5,2.5,0,0,1-2.5-2.5,1,1,0,0,0-2,0A4.505,4.505,0,0,0,24,30a1,1,0,0,0,0-2Z"></path>
                                <path d="M41,12H35.07a1,1,0,0,1-.832-.445L32.02,8.227A4.994,4.994,0,0,0,27.859,6H20.141A4.994,4.994,0,0,0,15.98,8.227L14,11.2V11a2,2,0,0,0-2-2H9a2,2,0,0,0-2,2v1a5.006,5.006,0,0,0-5,5V37a5.006,5.006,0,0,0,5,5H41a5.006,5.006,0,0,0,5-5V17A5.006,5.006,0,0,0,41,12ZM9,11h3v1H9ZM44,37a3,3,0,0,1-3,3H7a3,3,0,0,1-3-3V17a3,3,0,0,1,3-3h5.93a3,3,0,0,0,2.5-1.336l2.219-3.328A3,3,0,0,1,20.141,8h7.718a3,3,0,0,1,2.5,1.336l2.219,3.328A3,3,0,0,0,35.07,14H41a3,3,0,0,1,3,3Z"></path>
                            </g>
                        </svg>